Air Line Pilots Association - Singapore,"720 Upper Changi Road East 
SIA Training Centre SIN-STC-02A 
Singapore 486852",http://www.alpas.org/,Employee Trade Unions
Air Transport Executive Staff Union,"25 Airline Road 
Airline House SIN ALH 05C-1 
Singapore 819829",http://www.aesu.org.sg/,Employee Trade Unions
Amalgamated Union of Public Daily Rated Workers,"261 Waterloo Street
#04-10 
Singapore 180261",,Employee Trade Unions
Amalgamated Union of Statutory Board Employees,"1 Marina Boulevard NTUC Centre  
#11-01
Singapore 018989",http://www.ausbe.org.sg/,Employee Trade Unions
"Attractions, Resorts & Entertainment Union","1 Pasir Ris Close 
Pasir Ris NTUC Resort 
Singapore 519599",,Employee Trade Unions
Building Construction and Timber Industries Employees' Union,"3 Bukit Pasoh Road 
#03-00 
Singapore 089817",,Employee Trade Unions
Chemical Industries Employees Union,"3 Bukit Pasoh Road
#06-00
Singapore 089817",,Employee Trade Unions
Development Bank of Singapore Staff Union,"12 Marina Boulevard
Marina Bay Financial Centre #08-00
Singapore 018982",,Employee Trade Unions
Dnata Singapore Staff Union,"50 Airport Boulevard 
Singapore 819658",,Employee Trade Unions
Education Services Union,"605B Macpherson Road #07-08 
Singapore 368241",,Employee Trade Unions
ExxonMobil Singapore Employees Union,"18 Pioneer Road 
Singapore 628498",,Employee Trade Unions
"Food, Drinks and Allied Workers Union","279 River Valley Road 
Singapore 238320",,Employee Trade Unions
Healthcare Services Employees' Union,"31 Third Hospital Avenue 
#01-03 Bowyer Block C 
Singapore 169608",http://www.hseu.org.sg/,Employee Trade Unions
Housing & Development Board Staff Union,"530 Toa Payoh Lor 6 
#04-01 HDB Hub 
Singapore 310530",,Employee Trade Unions
Inland Revenue Authority of Singapore Staff Union,"Revenue House 
55 Newton Road 
Singapore 307987",,Employee Trade Unions
Keppel Employees Union,"51 Pioneer Sector 1 
Singapore 628437",,Employee Trade Unions
Keppel FELS Employees Union,"50 Gul Road 
Singapore 629351",,Employee Trade Unions
Metal Industries Workers Union,"255-B Jalan Besar 
Singapore 208928",http://www.miwu.org.sg,Employee Trade Unions
National Trades Union Congress,"1 Marina Boulevard
One Marina Boulevard
#11 - 01 Singapore 018989",http://www.ntuc.org.sg/,Federation of Trade Unions
National Transport Workers' Union,"16B/18B Lorong 37 Geylang 
NTWU Building 
Singapore 387912",,Employee Trade Unions
Natsteel Employees' Union,"22 Tanjong Kling Road 
Singapore 628048",,Employee Trade Unions
Ngee Ann Polytechnic Academic Staff Union,"Ngee Ann Polytechnic 
535 Clementi Road 
Singapore 599489",,Employee Trade Unions
"Print and Media Association, Singapore","68 Lorong 16 Geylang 
Association Building, #04 - 02 
Singapore 398889",http://www.pmas.sg/,Employer Trade Unions
Public Utilities Board Employees' Union,"76A Race Course Road 
Singapore 218578",,Employee Trade Unions
"Reuter Local Employees Union, Singapore","18 Science Park Drive 
Singapore 118229",,Employee Trade Unions
Scoot Staff Union,"80 Airport Boulevard 
#04-07-10 
Changi Airport Terminal 1 
Singapore 819642",,Employee Trade Unions
Sembawang Shipyard Employees' Union,"Admiralty Road West 
Singapore 759956",,Employee Trade Unions
Shipbuilding & Marine Engineering Employees' Union,"116 Changi Road
#03-05 WIS@CHANGI
Singapore 419718",,Employee Trade Unions
SIA Engineering Company Engineers and Executives Union,"25 Airline Road 
Airline House, SIN-ALH-05A 
Singapore 819829",,Employee Trade Unions
Singapore Airlines Staff Union,"25 Airline Road 
Airline House, SIN ALH 05-A 
Singapore Changi Airport 
Singapore 819829",http://www.siasu.org.sg/,Employee Trade Unions
Singapore Airport Terminal Services Workers' Union,"20 Airport Boulevard 
Inflight Catering Centre 
Singapore 819659",,Employee Trade Unions
"Singapore Catering Services, Staffs & Workers Trade Union","135 Middle Road 
#01-12 Bylands Building 
Singapore 188975",,Employee Trade Unions
Singapore Chinese Teachers' Union,"540 Sims Avenue 
#02-03 Sims Ave Centre 
Singapore 387603",,Employee Trade Unions
Singapore Industrial & Services Employees' Union,"3 Bukit Pasoh Road 
#05-00 
Singapore 089817",,Employee Trade Unions
Singapore Insurance Employees' Union,"190 Middle Road 
#10-07 Fortune Centre 
Singapore 188979",,Employee Trade Unions
Singapore Interpreters' & Translators' Union,"42 West Coast Drive 
Singapore 127978",,Employee Trade Unions
Singapore Malay Teachers Union,"587 Geylang Road 
#04-01 
Singapore 389526",,Employee Trade Unions
Singapore Maritime Employers Federation,"59 Tras Street 
Singapore 078998",,Employer Trade Unions
Singapore Maritime Officers' Union,"75 Jellicoe Road, Wavelink Building 
Singapore 208738",http://www.smou.org.sg/,Employee Trade Unions
Singapore National Employers Federation,"19 Tanglin Road 
#10-01/07, Tanglin Shopping Centre 
Singapore 247909",http://www.sgemployers.com/,Employer Trade Unions
Singapore National Union of Journalists,"1000 Toa Payoh North Podium 4 
News Centre 
Singapore 318994",,Employee Trade Unions
Singapore Organisation of Seamen,"52 Chin Swee Road 
#09-00 Seacare Building 
Singapore 169875",http://www.sosea.org.sg/,Employee Trade Unions
Singapore Port Workers Union,"Blk 7B Keppel Road #12-07 
Tanjong Pagar Complex 
Singapore 089055",http://www.spwu.org.sg/,Employee Trade Unions
Singapore Press Holdings Employees' Union,"1000 Toa Payoh North News Centre 
#07-00 
Singapore 318994",,Employee Trade Unions
Singapore Refining Company Employees' Union,"1 Merlimau Road 
Singapore 628260",,Employee Trade Unions
Singapore Shell Employees' Union,"9 North Buona Vista Drive
#07-01 The Metropolis
Singapore 138588",,Employee Trade Unions
Singapore Stevedores Union,"Blk 34 Upper Cross Street 
#04-168 
Singapore 050034",,Employee Trade Unions
Singapore Teachers' Union,"583 Serangoon Road 
Singapore 218197",http://www.stu.org.sg/,Employee Trade Unions
Singapore Technologies Electronics Employees' Union,"24 Ang Mo Kio Street 65 
Singapore 569061",,Employee Trade Unions
Singapore Union of Broadcasting Employees,"Caldecott Broadcast Centre 
Andrew Road 
Singapore 299939",,Employee Trade Unions
Singapore Urban Redevelopment Authority Workers' Union,"45 Maxwell Road 
11th Storey The URA Centre 
Singapore 069118",,Employee Trade Unions
SPRING Singapore Staff Union,"Fusionpolis Walk 
#01-02 Solaris 
Singapore 138628",,Employee Trade Unions
Staff Union of NTUC-ARU,"1 Marina Boulevard 
One Marina Boulevard #11-01 
Singapore 018989",,Employee Trade Unions
The Amalgamated Union of Public Employees,"Wisma AUPE 
295 Upper Paya Lebar Road 
Singapore 534929",http://www.aupe.org.sg/wps/portal/aupe/home,Employee Trade Unions
The Film Industrial Employees Union of Singapore,"135 Middle Road 
#01-12 Bylands Building 
Singapore 188975",,Employee Trade Unions
The Port Officers' Union,"7 Keppel Road, #03-54 
Tanjong Pagar Complex 
Singapore 089053",,Employee Trade Unions
The Singapore Bank Employees' Union,"128 Prinsep Street 
#02-02 Sin Thai Hin Building 
Singapore 188655",,Employee Trade Unions
The Singapore Bank Officers' Association,"200 Jalan Sultan 
#10-01 Textile Centre 
Singapore 199018",,Employee Trade Unions
The Singapore Manual & Mercantile Workers' Union,"65 Lorong 24A Geylang 
Singapore 398589",http://www.smmwu.org.sg/,Employee Trade Unions
The Singapore Motor Workshops Employees' Union,"135 Middle Road 
#01-12 Bylands Building 
Singapore 188975",,Employee Trade Unions
The Singapore Tamil Teachers' Union,"394 Race Course Road 
Singapore 218649",,Employee Trade Unions
The United Workers of Petroleum Industry,"37 Tessensohn Road 
Singapore 217658",,Employee Trade Unions
Times Publishing Group Employees' Union,"1 New Industrial Road 
Times Centre 
Singapore 536196",,Employee Trade Unions
Union of ITE Training Staff,"16 Lorong 37 Geylang 
NTWU Building 
Singapore 387912",,Employee Trade Unions
Union of Power and Gas Employees,"1A Woodleigh Park #03-09 
Singapore Power Training Institute 
Singapore 357874",http://www.upage.org.sg/,Employee Trade Unions
Union of Security Employees,"261 Waterloo Street 
#03-30 Waterloo Centre 
Singapore 180261",,Employee Trade Unions
Union of Telecoms Employees of S'pore,"15/33 Hill Street 
Telephone House Complex 
Singapore 179352",,Employee Trade Unions
United Workers of Electronics & Electrical Industries,"252 Tembeling Road 
#03-07 Tembeling Centre 
Singapore 423731",http://www.uweei.org.sg/,Employee Trade Unions
